<svg width="6103" height="5948" viewBox="0 0 6103 5948" fill="none" xmlns="http://www.w3.org/2000/svg">
<path fill-rule="evenodd" clip-rule="evenodd" d="M3208.5 1.0129C3093.89 8.1389 3000.7 43.9719 2939.36 104.5C2928.21 115.5 2928.21 115.5 2923.67 129.5C2909.13 174.348 2904.33 197.681 2901.52 237C2900.68 248.825 2898.2 283.925 2896.01 315C2891.34 381.361 2884.14 474.488 2883.41 477.852C2882.99 479.838 2881.64 478.283 2874.7 467.847C2845.91 424.478 2811.12 388.752 2769 359.291C2687.07 301.981 2583.57 279.273 2485.3 297.045C2393.55 313.639 2314.99 361.018 2254.67 436.125C2246.14 446.751 2246.14 446.751 2238.82 448.522C2234.79 449.497 2225.65 452.198 2218.5 454.525C2145.48 478.289 2081.74 523.581 2035.15 584.793L2028.84 593.087L2021.8 580.793C1976.88 502.331 1902.86 441.469 1816.6 412.067C1752.04 390.061 1681.14 386.42 1612.69 401.595C1521.45 421.823 1439.15 478.557 1385.07 558.5C1350.72 609.28 1330.84 663.712 1322.79 729C1320.79 745.261 1321.11 803.391 1323.31 823.5C1326.88 856.066 1334.75 904.97 1337.63 912.474C1338.51 914.782 1338.87 914.983 1323.09 904.18C1266.45 865.4 1204.68 842.612 1136.68 835.411C1117.74 833.406 1074.68 833.965 1057 836.447C1039.89 838.849 1017.93 843.523 1002.34 848.083C962.14 859.835 917.129 881.976 883.228 906.672C804.516 964.01 750.682 1050.88 734.437 1146.77C729.996 1172.99 728.733 1191.5 729.305 1222C730.014 1259.76 733.245 1283.05 744.593 1332.2C753.701 1371.65 775.911 1452.29 795.349 1516.5C798.846 1528.05 801.604 1537.63 801.479 1537.79C801.354 1537.95 788.931 1532.38 773.875 1525.41C758.818 1518.45 721.75 1501.52 691.5 1487.81C655.595 1471.53 629.99 1459.25 617.75 1452.43C537.034 1407.46 487.048 1389.41 421 1381.38C402.881 1379.17 357.215 1378.87 340 1380.84C263.841 1389.56 198.509 1416.55 139.5 1463.68C126.481 1474.07 102.996 1496.76 91.7965 1509.75C41.7435 1567.83 12.1985 1635.95 2.33752 1716C-0.112485 1735.88 -0.0914872 1780.28 2.37651 1801.5C8.67351 1855.63 21.9505 1902.69 45.3705 1953.88C57.0505 1979.41 74.4325 2010.18 95.9965 2043.5C101.335 2051.75 114.94 2074.7 126.228 2094.5C188.325 2203.42 254.176 2309.35 361.338 2472.72C377.652 2497.59 391 2518.32 391 2518.77C391 2519.23 389.313 2520.19 387.25 2520.9C379.622 2523.56 351.096 2538.03 338.441 2545.66C297.398 2570.42 260.685 2603.46 231.688 2641.75C141.395 2760.98 131.337 2924.62 206.288 3055C248.057 3127.66 310.715 3182.42 394.5 3219.5C430.918 3235.62 516.644 3266.15 550 3274.9C580.547 3282.9 745.795 3315.3 790.901 3322.12L799.301 3323.39L798.69 3349.45C798.105 3374.43 796.529 3401.28 795.4 3405.5C795.106 3406.6 788.707 3413.09 781.182 3419.92C765.811 3433.87 725.39 3472.1 696 3500.47C653.918 3541.09 614.667 3575.46 564.5 3615.63C514.724 3655.48 480.936 3680.2 425.773 3717.1C392.949 3739.06 378.868 3747.82 359.773 3758.13C301.871 3789.41 281.43 3802.24 256.5 3822.97C216.743 3856.02 182.777 3898.58 160.152 3943.68C139.433 3984.98 125.911 4033.13 121.952 4079.71C120.403 4097.92 121.215 4141.02 123.426 4158C132.733 4229.47 158.547 4290.9 202.432 4346C214.723 4361.43 244.79 4391.67 259.388 4403.27C315.746 4448.07 379.731 4475.37 447.5 4483.53C455.2 4484.46 462.017 4485.37 462.651 4485.54C463.434 4485.76 462.269 4491.9 459.018 4504.68C455.186 4519.75 453.044 4525.99 448.256 4536C427.6 4579.19 415.416 4622.11 410.407 4669.33C408.213 4690.02 408.962 4733.01 411.89 4754.5C423.746 4841.51 458.271 4913.35 515.951 4971.05C577.993 5033.12 657.137 5071 746 5081.15C763.542 5083.16 810.083 5082.87 827.5 5080.65C892.258 5072.39 946.799 5051.72 1001 5014.91C1028.11 4996.49 1042.24 4984.29 1090.02 4938.04C1179.16 4851.76 1244 4793.2 1346.25 4706.64C1353.26 4700.7 1359 4696.14 1359 4696.5C1359 4696.86 1358.22 4702.64 1357.28 4709.33C1354.76 4727.15 1354.78 4779.18 1357.32 4798C1363.61 4844.67 1375.35 4883.81 1394.64 4922.5C1420.73 4974.83 1461.01 5022.61 1508.68 5057.79C1515.85 5063.08 1515.85 5063.08 1513.96 5069.88C1510.77 5081.4 1505.2 5106.76 1502.52 5122C1491.44 5184.97 1491.26 5243.47 1502 5294.2C1514.52 5353.33 1539.74 5406.78 1577.64 5454.5C1588.87 5468.63 1620.32 5500.09 1634.5 5511.36C1657.68 5529.79 1676.65 5542.03 1702 5554.9C1741.1 5574.77 1779.42 5586.76 1823.85 5593.01C1831.25 5594.06 1837.61 5595.27 1837.99 5595.71C1838.36 5596.14 1842.98 5603.03 1848.25 5611C1884.18 5665.31 1933.37 5708.65 1994 5739.44C2041.75 5763.68 2086.03 5776.57 2139 5781.64C2161.96 5783.84 2204 5783.07 2227 5780.04C2309.1 5769.21 2385.63 5736.58 2459.7 5680.83C2482.18 5663.91 2501.08 5646.87 2539.15 5609.2C2575.84 5572.9 2575.84 5572.9 2576.99 5578.7C2589.14 5639.89 2608.92 5703.33 2628.04 5742.5C2643.52 5774.21 2657.64 5794.88 2687.33 5829.29C2701.99 5846.29 2725.87 5864.85 2764.5 5889.26C2797.68 5910.24 2836.7 5930.83 2848.09 5933.4C2865.99 5937.42 2910.25 5938.74 2940 5936.14C3029.82 5928.29 3123.28 5903.53 3187.97 5870.45C3208.95 5859.72 3220.63 5851.84 3227.19 5844C3261.44 5803.03 3306.77 5725.35 3325.51 5675.5C3335.28 5649.51 3341.39 5596.53 3339.02 5558.35C3336.97 5525.25 3333.37 5504.53 3323.39 5468.42C3318.95 5452.35 3318.95 5452.35 3319.22 5379.92C3319.5 5307.5 3319.5 5307.5 3323.36 5291.5C3329.24 5267.09 3333 5254.71 3346.8 5214.34L3359.5 5177.18L3372.5 5171.5C3379.65 5168.38 3386.36 5165.75 3387.42 5165.66C3389.01 5165.53 3390.53 5168.44 3396.2 5182.5C3433.71 5275.35 3467.64 5377.67 3495.87 5483C3505.36 5518.39 3524.2 5593.69 3531.53 5625.5C3539.07 5658.19 3543.16 5672.96 3549.65 5690.85C3578.17 5769.55 3627.06 5833.86 3694 5880.71C3738.26 5911.68 3790.97 5933.35 3844.15 5942.43C3871.74 5947.14 3876.35 5947.5 3909.5 5947.5C3942.92 5947.5 3953.87 5946.61 3979 5941.87C4082.85 5922.26 4172.76 5861.13 4230.6 5770.8C4241.14 5754.34 4259.24 5718.02 4265.88 5700C4279.26 5663.72 4287.64 5626.11 4290.95 5587.5C4292.27 5572.09 4292.29 5502.58 4290.98 5471.5C4286.68 5369.09 4275.23 5277.25 4255.94 5190.26C4254.32 5182.97 4253 5176.61 4253 5176.12C4253 5175.62 4256.94 5171.92 4261.75 5167.89C4287.34 5146.45 4314.04 5116.75 4332.76 5088.88C4355.39 5055.21 4375.17 5011.62 4383.98 4976C4384.6 4973.53 4385.3 4970.91 4385.54 4970.19C4385.85 4969.28 4387.77 4970.18 4391.74 4973.06C4401.58 4980.22 4424.88 4995.45 4439 5003.95C4446.42 5008.42 4457 5015.77 4462.5 5020.27C4540.89 5084.44 4612.74 5116.9 4703.5 5129.15C4718.3 5131.14 4724.71 5131.44 4753 5131.44C4793.41 5131.44 4811.24 5129.31 4846.5 5120.31C4932.71 5098.31 5015.77 5039.32 5067.25 4963.55C5125.73 4877.45 5147.76 4778.51 5133.93 4664C5123.69 4579.16 5088.18 4449.32 5043.04 4331.61C5039.69 4322.87 5037.15 4315.52 5037.39 4315.27C5037.64 4315.03 5048.34 4319.87 5061.17 4326.04C5200.96 4393.19 5335.42 4452.19 5460 4501.03C5525.23 4526.61 5593.28 4551.61 5614.67 4557.85C5688.69 4579.46 5760.01 4580.03 5831.24 4559.59C5893.16 4541.82 5947.13 4509.94 5993.04 4464.04C6053.38 4403.7 6088.91 4331.06 6100.68 4244C6103.29 4224.67 6103.29 4172.35 6100.68 4153C6090.98 4081.15 6063.46 4016.15 6019.71 3961.8C5981.39 3914.19 5938.07 3879.7 5825 3806.81C5747.82 3757.05 5702.47 3730.04 5654 3704.94C5561.4 3656.98 5447.87 3604.51 5331.75 3556C5324.73 3553.07 5319.15 3550.51 5319.35 3550.32C5319.54 3550.13 5343.05 3550.45 5371.6 3551.03C5400.14 3551.62 5459.95 3552.19 5504.5 3552.3C5591.44 3552.52 5596.56 3552.29 5627.67 3546.95C5775.73 3521.53 5895.03 3411.08 5930.59 3266.51C5938.45 3234.55 5941.36 3210.08 5941.36 3176C5941.36 3113.92 5928.28 3059.64 5899.91 3004C5881.59 2968.07 5860.73 2939.59 5831.06 2909.96C5799.58 2878.53 5769.53 2856.78 5730.1 2836.86C5721.61 2832.57 5715.3 2828.84 5716.08 2828.57C5789.79 2802.58 5817.65 2791.5 5851 2774.87C5882.97 2758.94 5906.68 2744.12 5929.95 2725.54C5970.63 2693.06 6001.75 2656.2 6027.28 2610.27C6074.86 2524.69 6087.92 2429.61 6064.57 2338.73C6050.46 2283.81 6026.18 2234.58 5991.91 2191.36C5980.32 2176.74 5953.27 2149.37 5938.69 2137.49C5878.6 2088.53 5812.15 2060.82 5732 2051.27C5711.78 2048.86 5655.92 2048.89 5630.5 2051.33C5504.78 2063.39 5368.17 2091.56 5172.01 2145.91C5160.19 2149.18 5150.39 2151.73 5150.24 2151.57C5150.08 2151.41 5159.26 2138.06 5170.63 2121.89C5190.46 2093.71 5202.08 2078.11 5247.62 2018.5C5271.57 1987.15 5295.08 1954.95 5310 1933.08C5315.77 1924.61 5328.12 1907.52 5337.44 1895.09C5365.05 1858.27 5378.63 1836.5 5397.35 1799C5435.18 1723.27 5452.81 1652.17 5450.66 1584C5448.81 1525.18 5435.71 1473.11 5410.05 1422.5C5376.74 1356.83 5327.07 1304.27 5262.63 1266.52C5252 1260.3 5220.98 1245 5218.98 1245C5217.35 1245 5217.69 1243.76 5225.49 1221.5C5241.81 1174.87 5248.38 1137.19 5248.42 1090C5248.45 1063.06 5247.6 1051.68 5243.9 1029C5231.34 952.024 5193.57 878.519 5138.03 822.959C5079.23 764.138 5004.7 728.017 4918 716.329C4899.22 713.797 4849.39 713.788 4830.5 716.313C4786.71 722.168 4748.16 733.389 4711.18 751.046C4669.12 771.129 4624.24 804.474 4595.39 837.073C4566.19 870.063 4548.45 896.492 4505.95 970.314C4499.67 981.211 4494.43 989.761 4494.29 989.314C4494.15 988.866 4491.31 975 4487.97 958.5C4472.01 879.548 4459.97 830.38 4438.01 754.5C4409.8 657.007 4386.75 603.691 4347.7 545.632C4279.78 444.661 4184.07 382.441 4071.5 366.081C3982.57 353.157 3886.18 375.36 3810 426.312C3787.11 441.626 3771.05 454.851 3750.94 474.948C3721.31 504.56 3699.08 535.077 3679.81 572.599C3665.68 600.088 3656.12 623.85 3648 651.632C3644.44 663.78 3642.81 667.372 3632.3 686.053C3625.85 697.525 3620.43 706.769 3620.26 706.594C3620.09 706.42 3621.07 692.153 3622.44 674.889C3629.46 586.886 3644.09 378.21 3650.1 280.5C3651.56 256.768 3650.85 238.256 3647.48 212.013C3642.81 175.623 3642.03 172.392 3635.45 162.277C3617.43 134.56 3590.92 108.51 3558.5 86.6599C3498.14 45.9759 3414.64 16.7789 3326.5 5.53491C3291.86 1.11591 3239.26 -0.899096 3208.5 1.0129Z" fill="currentColor"/>
</svg>
